simulation/atmega2560_uart_trace.vcd
$timescale 10ns $end
$scope module logic $end
$var wire 1 ! TxD $end
$var wire 1 " RxD $end
$var wire 1 # Trigger $end
$upscope $end
$enddefinitions $end
$dumpvars
x!
x"
x#
$end
#7687
0!
0#
#7700
1!
#7712
0"
#261375
1#
#271250
0!
#291943
1!
#312787
0!
#333618
1!
#354462
0!
#375300
1!
#396143
0!
#416968
1!
#437812
0!
#458600
1!
#479625
0!
#500318
1!
#521162
0!
#541993
1!
#562837
0!
#583675
1!
#604518
0!
#625343
1!
#646187
0!
#666975
1!
#688000
0!
#708693
1!
#729537
0!
#750368
1!
#771212
0!
#792050
1!
#812893
0!
#833718
1!
#854562
0!
#875350
1!
#896375
0!
#917068
1!
#937912
0!
#958743
1!
#979587
0!
#1000425
1!
#1021268
0!
#1042093
1!
#1062937
0!
#1083725
1!
#1104750
0!
#1146281
1!
#1167125
0!
#1187962
1!
#1208806
0!
#1292093
1!
#1313125
0!
#1333825
1!
#1354668
0!
#1375493
1!
#1417175
0!
#1500475
1!
