simulation/atmega32_uart_trace.vcd
$timescale 10ns $end
$scope module logic $end
$var wire 1 ! TxD $end
$var wire 1 " RxD $end
$var wire 1 # Trigger $end
$upscope $end
$enddefinitions $end
$dumpvars
x!
x"
x#
$end
#7650
0"
0!
#7662
1!
#260643
0#
#260656
1#
#271231
0!
#291931
1!
#312775
0!
#333606
1!
#354450
0!
#375281
1!
#396125
0!
#416956
1!
#437800
0!
#458581
1!
#479606
0!
#500306
1!
#521150
0!
#541981
1!
#562825
0!
#583656
1!
#604500
0!
#625331
1!
#646175
0!
#666956
1!
#687981
0!
#708681
1!
#729525
0!
#750356
1!
#771200
0!
#792031
1!
#812875
0!
#833706
1!
#854550
0!
#875331
1!
#896356
0!
#917056
1!
#937900
0!
#958731
1!
#979575
0!
#1000406
1!
#1021250
0!
#1042081
1!
#1062925
0!
#1083706
1!
#1104731
0!
#1146262
1!
#1167112
0!
#1187937
1!
#1208787
0!
#1292081
1!
#1313106
0!
#1333806
1!
#1354643
0!
#1375481
1!
#1417156
0!
#1500450
1!
