simulation/atmega328p_uart_trace.vcd
$timescale 10ns $end
$scope module logic $end
$var wire 1 ! TxD $end
$var wire 1 " RxD $end
$var wire 1 # Trigger $end
$upscope $end
$enddefinitions $end
$dumpvars
x!
x"
x#
$end
#7650
0!
0#
#7662
1!
#7675
0"
#260762
1#
#271225
0!
#291925
1!
#312775
0!
#333600
1!
#354450
0!
#375275
1!
#396125
0!
#416950
1!
#437800
0!
#458575
1!
#479600
0!
#500300
1!
#521150
0!
#541975
1!
#562825
0!
#583650
1!
#604500
0!
#625325
1!
#646175
0!
#666950
1!
#687975
0!
#708675
1!
#729525
0!
#750350
1!
#771200
0!
#792025
1!
#812875
0!
#833700
1!
#854550
0!
#875325
1!
#896350
0!
#917050
1!
#937900
0!
#958725
1!
#979575
0!
#1000400
1!
#1021250
0!
#1042075
1!
#1062925
0!
#1083700
1!
#1104725
0!
#1146262
1!
#1167106
0!
#1187937
1!
#1208781
0!
#1292081
1!
#1313106
0!
#1333806
1!
#1354650
0!
#1375481
1!
#1417156
0!
#1500450
1!
